<?xml version="1.0" encoding="UTF-8"?>
<svg width="752pt" height="752pt" version="1.1" viewBox="0 0 752 752" xmlns="http://www.w3.org/2000/svg">
 <g fill-rule="evenodd">
  <path d="m361.29 392.23h-194.77v194.77h194.77zm-32.461 32.461h-129.84v129.84h129.84z"/>
  <path d="m231.45 229.92h64.922v64.922h-64.922z"/>
  <path d="m231.45 457.16h64.922v64.922h-64.922z"/>
  <path d="m393.75 392.23h64.922v64.922h-64.922z"/>
  <path d="m458.68 457.16h64.922v64.922h-64.922z"/>
  <path d="m523.6 392.23h64.922v64.922h-64.922z"/>
  <path d="m393.75 522.08h64.922v64.922h-64.922z"/>
  <path d="m458.68 229.92h64.922v64.922h-64.922z"/>
  <path d="m361.29 165h-194.77v194.77h194.77zm-32.461 32.461h-129.84v129.84h129.84z"/>
  <path d="m588.53 165h-194.77v194.77h194.77zm-32.465 32.461h-129.84v129.84h129.84z"/>
 </g>
</svg>
